06 - Model Fitting and Recommendation Systems Comprehension Check
…
We see that, on average, movies that came out after 1993 get more ratings. We also see that with newer movies, starting in 1993, the number of ratings decreases with year: the more recent a movie is, the less time users have had to rate it.

Among movies that came out in 1993 or later, what are the 25 movies with the most ratings per year, and what is the average rating of each of the top 25 movies?

movielens %>% 
    filter(year >= 1993) %>%
    group_by(movieId) %>%
    summarize(n = n(), years = 2018 - first(year),
                title = title[1],
                rating = mean(rating)) %>%
    mutate(rate = n/years) %>%
    top_n(25, rate) %>%
    arrange(desc(rate)) 

## # A tibble: 25 x 6
##    movieId     n years title                                        rating  rate
##      <int> <int> <dbl> <chr>                                         <dbl> <dbl>
##  1     356   341    24 Forrest Gump                                   4.05  14.2
##  2   79132   111     8 Inception                                      4.05  13.9
##  3    2571   259    19 Matrix, The                                    4.18  13.6
##  4     296   324    24 Pulp Fiction                                   4.26  13.5
##  5     318   311    24 Shawshank Redemption, The                      4.49  13.0
##  6   58559   121    10 Dark Knight, The                               4.24  12.1
##  7    4993   200    17 Lord of the Rings: The Fellowship of the Ri~   4.18  11.8
##  8    5952   188    16 Lord of the Rings: The Two Towers, The         4.06  11.8
##  9    7153   176    15 Lord of the Rings: The Return of the King, ~   4.13  11.7
## 10    2858   220    19 American Beauty                                4.24  11.6
## # ... with 15 more rows
…
