Harvard Data Science Professional - Linear Regression
…
as_tibble(Teams)

## # A tibble: 2,955 x 48
##    yearID lgID  teamID franchID divID  Rank     G Ghome     W     L DivWin WCWin
##     <int> <fct> <fct>  <fct>    <chr> <int> <int> <int> <int> <int> <chr>  <chr>
##  1   1871 NA    BS1    BNA      <NA>      3    31    NA    20    10 <NA>   <NA> 
##  2   1871 NA    CH1    CNA      <NA>      2    28    NA    19     9 <NA>   <NA> 
##  3   1871 NA    CL1    CFC      <NA>      8    29    NA    10    19 <NA>   <NA> 
##  4   1871 NA    FW1    KEK      <NA>      7    19    NA     7    12 <NA>   <NA> 
##  5   1871 NA    NY2    NNA      <NA>      5    33    NA    16    17 <NA>   <NA> 
##  6   1871 NA    PH1    PNA      <NA>      1    28    NA    21     7 <NA>   <NA> 
##  7   1871 NA    RC1    ROK      <NA>      9    25    NA     4    21 <NA>   <NA> 
##  8   1871 NA    TRO    TRO      <NA>      6    29    NA    13    15 <NA>   <NA> 
##  9   1871 NA    WS3    OLY      <NA>      4    32    NA    15    15 <NA>   <NA> 
## 10   1872 NA    BL1    BLC      <NA>      2    58    NA    35    19 <NA>   <NA> 
## # ... with 2,945 more rows, and 36 more variables: LgWin <chr>, WSWin <chr>,
## #   R <int>, AB <int>, H <int>, X2B <int>, X3B <int>, HR <int>, BB <int>,
## #   SO <int>, SB <int>, CS <int>, HBP <int>, SF <int>, RA <int>, ER <int>,
## #   ERA <dbl>, CG <int>, SHO <int>, SV <int>, IPouts <int>, HA <int>,
## #   HRA <int>, BBA <int>, SOA <int>, E <int>, DP <int>, FP <dbl>, name <chr>,
## #   park <chr>, attendance <int>, BPF <int>, PPF <int>, teamIDBR <chr>,
## #   teamIDlahman45 <chr>, teamIDretro <chr>
…
## Warning in set.seed(1, sample.kind = "Rounding"): non-uniform 'Rounding' sampler
## used

galton <- GaltonFamilies %>%
    group_by(family, gender) %>%
    sample_n(1) %>%
    ungroup() %>% 
    gather(parent, parentHeight, father:mother) %>%
    mutate(child = ifelse(gender == "female", "daughter", "son")) %>%
    unite(pair, c("parent", "child"))

galton

## # A tibble: 710 x 8
##    family midparentHeight children childNum gender childHeight pair           
##    <fct>            <dbl>    <int>    <int> <fct>        <dbl> <chr>          
##  1 001               75.4        4        2 female        69.2 father_daughter
##  2 001               75.4        4        1 male          73.2 father_son     
##  3 002               73.7        4        4 female        65.5 father_daughter
##  4 002               73.7        4        2 male          72.5 father_son     
##  5 003               72.1        2        2 female        68   father_daughter
##  6 003               72.1        2        1 male          71   father_son     
##  7 004               72.1        5        5 female        63   father_daughter
##  8 004               72.1        5        2 male          68.5 father_son     
##  9 005               69.1        6        5 female        62.5 father_daughter
## 10 005               69.1        6        1 male          72   father_son     
## # ... with 700 more rows, and 1 more variable: parentHeight <dbl>
…
ROY <- ROY %>%
    filter(yearID == rookie_year | yearID == rookie_year+1) %>%
    group_by(playerID) %>%
    mutate(rookie = ifelse(yearID == min(yearID), "rookie", "sophomore")) %>%
    filter(n() == 2) %>%
    ungroup %>%
    select(playerID, rookie_year, rookie, nameFirst, nameLast, AVG)

The code to use the spread function to have one column for the rookie and sophomore years batting averages:

ROY <- ROY %>% spread(rookie, AVG) %>% arrange(desc(rookie))
ROY

## # A tibble: 102 x 6
##    playerID  rookie_year nameFirst nameLast rookie sophomore
##    <chr>           <int> <chr>     <chr>     <dbl>     <dbl>
##  1 mccovwi01        1959 Willie    McCovey   0.354     0.238
##  2 suzukic01        2001 Ichiro    Suzuki    0.350     0.321
##  3 bumbral01        1973 Al        Bumbry    0.337     0.233
##  4 lynnfr01         1975 Fred      Lynn      0.331     0.314
##  5 pujolal01        2001 Albert    Pujols    0.329     0.314
##  6 troutmi01        2012 Mike      Trout     0.326     0.323
##  7 braunry02        2007 Ryan      Braun     0.324     0.285
##  8 olivato01        1964 Tony      Oliva     0.323     0.321
##  9 hargrmi01        1974 Mike      Hargrove  0.323     0.303
## 10 darkal01         1948 Al        Dark      0.322     0.276
## # ... with 92 more rows
…
## `summarise()` has grouped output by 'playerID'. You can override using the `.groups` argument.

two_years

## # A tibble: 312 x 4
##    nameFirst nameLast `2013` `2014`
##    <chr>     <chr>     <dbl>  <dbl>
##  1 Miguel    Cabrera   0.348  0.313
##  2 Hanley    Ramirez   0.345  0.283
##  3 Michael   Cuddyer   0.331  0.332
##  4 Scooter   Gennett   0.324  0.289
##  5 Joe       Mauer     0.324  0.277
##  6 Mike      Trout     0.323  0.287
##  7 Chris     Johnson   0.321  0.263
##  8 Freddie   Freeman   0.319  0.288
##  9 Yasiel    Puig      0.319  0.296
## 10 Yadier    Molina    0.319  0.282
## # ... with 302 more rows

The code to see what happens to the worst performers of 2013:

arrange(two_years, `2013`)

## # A tibble: 312 x 4
##    nameFirst nameLast  `2013` `2014`
##    <chr>     <chr>      <dbl>  <dbl>
##  1 Danny     Espinosa   0.158  0.219
##  2 Dan       Uggla      0.179  0.149
##  3 Jeff      Mathis     0.181  0.2  
##  4 B. J.     Upton      0.184  0.208
##  5 Adam      Rosales    0.190  0.262
##  6 Aaron     Hicks      0.192  0.215
##  7 Chris     Colabello  0.194  0.229
##  8 J. P.     Arencibia  0.194  0.177
##  9 Tyler     Flowers    0.195  0.241
## 10 Ryan      Hanigan    0.198  0.218
## # ... with 302 more rows
…
Code

# generate the Monte Carlo simulation
N <- 25
g <- 1000000
sim_data <- tibble(group = rep(1:g, each = N), x = rnorm(N * g), y = rnorm(N * g))

# calculate correlation between X,Y for each group
res <- sim_data %>% 
  group_by(group) %>% 
  summarize(r = cor(x, y)) %>% 
  arrange(desc(r))
res

## # A tibble: 1,000,000 x 2
##     group     r
##     <int> <dbl>
##  1 840003 0.794
##  2 767028 0.791
##  3 971856 0.776
##  4 212248 0.768
##  5  60200 0.761
##  6  27045 0.756
##  7 114409 0.756
##  8 755537 0.754
##  9 422986 0.753
## 10 789165 0.747
## # ... with 999,990 more rows
…
